{
    "type": "FeatureCollection",
    "name": "nodes",
    "crs": { "type": "name", "properties": { "name": "urn:ogc:def:crs:OGC:1.3:CRS84" } },
    "features": [
        {
            "type": "Feature",
            "properties": {
                "ID": 1
            },
            "geometry": {
                "type": "Point",
                "coordinates": [0, 0]
            }
        },
        {
            "type": "Feature",
            "properties": {
                "ID": 2
            },
            "geometry": {
                "type": "Point",
                "coordinates": [0.001, 0]
            }
        },
        {
            "type": "Feature",
            "properties": {
                "ID": 3
            },
            "geometry": {
                "type": "Point",
                "coordinates": [0.00200, 0.00050]
            }
        },
        {
            "type": "Feature",
            "properties": {
                "ID": 4
            },
            "geometry": {
                "type": "Point",
                "coordinates": [0.00200, -0.00050]
            }
        },
        {
            "type": "Feature",
            "properties": {
                "ID": 5
            },
            "geometry": {
                "type": "Point",
                "coordinates": [0.00300, 0]
            }
        },
        {
            "type": "Feature",
            "properties": {
                "ID": 6
            },
            "geometry": {
                "type": "Point",
                "coordinates": [0.00400, 0]
            }
        }
    ]
}
